{
    "data": [
        {
            "owner": 1,
            "has_committent": 0,
            "has_lgota": 1,
            "has_marks": 0,
            "pid": 351857312,
            "doc_id": "3CBD89BCFB7711F09BE5FA163EF6A82D",
            "usersTaxId": "306691996",
            "name": "V-5",
            "doc_date": "2026-01-21",
            "doc_status": 3,
            "doctype": "002",
            "contract_number": "V-2001",
            "contract_date": "2026-01-20",
            "partnerTin": "306486411",
            "partnerCompany": "\"ELNOZA ELYOROVNA\" MCHJ",
            "partnerPhone": "998977801684",
            "total_sum": 1200000,
            "total_delivery_sum": 1200000,
            "total_vat_sum": 0,
            "total_delivery_sum_with_vat": 1200000,
            "oneside": 0,
            "has_vat": false,
            "updated": "2026-01-28",
            "updated_date": "2026-01-28T12:08:09",
            "updated_unix": 1769602089,
            "created": "2026-01-27",
            "created_unix": 1769514998,
            "partiesID": "3CCCDE12FB7711F08574FA163EF6A82D",
            "roaming_id": "6970b5ed74250a3cd4003866",
            "lgota_codes": "102387",
            "factura_type": 0,
            "scoring": null,
            "sellerAccount": "20208000405118671001",
            "status_comment": null,
            "internal_status": null,
            "internal_comment": null,
            "internal_status_alarm": null,
            "is_creator": null,
            "agent": 0,
            "mark_codes": null,
            "signed": null,
            "branch_num": null
        },
        {
            "owner": 1,
            "has_committent": 0,
            "has_lgota": 1,
            "has_marks": 0,
            "pid": 351857418,
            "doc_id": "44F25AFEFB7711F0AD80FA163EF6A82D",
            "usersTaxId": "306691996",
            "name": "V-4",
            "doc_date": "2026-01-21",
            "doc_status": 1,
            "doctype": "002",
            "contract_number": "V-1403_1",
            "contract_date": "2023-03-14",
            "partnerTin": "600118769",
            "partnerPinfl": "32408833820012",
            "partnerCompany": "ABBASOV MAXMUD DJAXANGIROVICH",
            "partnerPhone": "998972886888",
            "total_sum": 40645.16,
            "total_delivery_sum": 40645.16,
            "total_vat_sum": 0,
            "total_delivery_sum_with_vat": 40645.16,
            "oneside": 0,
            "has_vat": false,
            "updated": "2026-01-27",
            "updated_date": "2026-01-27T11:56:52",
            "updated_unix": 1769515012,
            "created": "2026-01-27",
            "created_unix": 1769515012,
            "partiesID": "4503DC98FB7711F09147FA163EF6A82D",
            "roaming_id": "6970ace17dc7393ff0078c37",
            "lgota_codes": "102387",
            "factura_type": 0,
            "scoring": null,
            "sellerAccount": "20208000405118671001",
            "status_comment": null,
            "internal_status": null,
            "internal_comment": null,
            "internal_status_alarm": null,
            "is_creator": null,
            "agent": 0,
            "mark_codes": null,
            "signed": null,
            "branch_num": null
        },
        {
            "owner": 1,
            "has_committent": 0,
            "has_lgota": 1,
            "has_marks": 0,
            "pid": 351857213,
            "doc_id": "36C00918FB7711F0AA42FA163EF6A82D",
            "usersTaxId": "306691996",
            "name": "V-7",
            "doc_date": "2026-01-26",
            "doc_status": 1,
            "doctype": "002",
            "contract_number": "V-0711",
            "contract_date": "2025-11-07",
            "partnerTin": "312554110",
            "partnerCompany": "\"AMIR WALNUT MARKET\" MCHJ",
            "partnerPhone": "998885002244",
            "total_sum": 50322.58,
            "total_delivery_sum": 50322.58,
            "total_vat_sum": 0,
            "total_delivery_sum_with_vat": 50322.58,
            "oneside": 0,
            "has_vat": false,
            "updated": "2026-01-27",
            "updated_date": "2026-01-27T11:56:28",
            "updated_unix": 1769514988,
            "created": "2026-01-27",
            "created_unix": 1769514988,
            "partiesID": "36D33C54FB7711F0A273FA163EF6A82D",
            "roaming_id": "69787dbd7dc7381e0c8a08f7",
            "lgota_codes": "102387",
            "factura_type": 0,
            "scoring": null,
            "sellerAccount": "20208000405118671001",
            "status_comment": null,
            "internal_status": null,
            "internal_comment": null,
            "internal_status_alarm": null,
            "is_creator": null,
            "agent": 0,
            "mark_codes": null,
            "signed": null,
            "branch_num": null
        },
        {
            "owner": 1,
            "pid": 351743947,
            "doc_id": "3310412CFB5711F0BB89FA163EA3FD69",
            "usersTaxId": "306691996",
            "name": "V-2701",
            "doc_date": "2026-01-27",
            "doc_status": 3,
            "doctype": "000",
            "contract_date": null,
            "partnerTin": "612099099",
            "partnerPinfl": "51903016130010",
            "partnerCompany": "RAQIBOV JAXONGIR XAFIZ O‘G‘LI",
            "partnerPhone": "998778004008",
            "has_vat": false,
            "signed": "2026-01-27",
            "updated": "2026-01-27",
            "updated_date": "2026-01-27T11:29:02",
            "updated_unix": 1769513342,
            "created": "2026-01-27",
            "created_unix": 1769501238,
            "partiesID": "33156576FB5711F0BA01FA163EA3FD69",
            "subtype": 6,
            "status_comment": null,
            "internal_status": null,
            "internal_comment": null,
            "internal_status_alarm": null,
            "contract_number": null,
            "total_sum": null,
            "total_delivery_sum": null,
            "total_vat_sum": null,
            "total_delivery_sum_with_vat": null,
            "oneside": null,
            "has_committent": null,
            "has_lgota": null,
            "has_marks": null,
            "is_creator": null,
            "agent": 0,
            "lgota_codes": null,
            "mark_codes": null,
            "roaming_id": null,
            "branch_num": null,
            "sellerAccount": null
        },
        {
            "owner": 1,
            "pid": 351744080,
            "doc_id": "3FB250C8FB5711F09349FA163EA3FD69",
            "usersTaxId": "306691996",
            "name": "V-2701",
            "doc_date": "2026-01-27",
            "doc_status": 3,
            "doctype": "000",
            "contract_date": null,
            "partnerTin": "612099099",
            "partnerPinfl": "51903016130010",
            "partnerCompany": "RAQIBOV JAXONGIR XAFIZ O‘G‘LI",
            "partnerPhone": "998778004008",
            "has_vat": false,
            "signed": "2026-01-27",
            "updated": "2026-01-27",
            "updated_date": "2026-01-27T11:28:33",
            "updated_unix": 1769513313,
            "created": "2026-01-27",
            "created_unix": 1769501259,
            "partiesID": "3FB82638FB5711F0A93CFA163EA3FD69",
            "subtype": 6,
            "status_comment": null,
            "internal_status": null,
            "internal_comment": null,
            "internal_status_alarm": null,
            "contract_number": null,
            "total_sum": null,
            "total_delivery_sum": null,
            "total_vat_sum": null,
            "total_delivery_sum_with_vat": null,
            "oneside": null,
            "has_committent": null,
            "has_lgota": null,
            "has_marks": null,
            "is_creator": null,
            "agent": 0,
            "lgota_codes": null,
            "mark_codes": null,
            "roaming_id": null,
            "branch_num": null,
            "sellerAccount": null
        }
    ],
    "total": 13726,
    "next_page_url": "https://api2.didox.uz/v2/documents?limit=5&owner=1&page=2",
    "source": "search"
}